{"links":{"first":1,"last":5,"prev":null,"next":2,"current_page":1,"per_page":10,"total":43},"data":[{"feedback":"z","created_at":"2025-11-11T13:15:27.000000Z","user":{"name":"bilal","profile_image":"https:\/\/lh3.googleusercontent.com\/a\/ACg8ocJsfL7op27p7wxNMOd4NUfehR77pV1XtIIZVicdAeBr8gDXbg=s384-c","slug":"bilal-3"}},{"feedback":"lerner","created_at":"2025-11-10T12:02:41.000000Z","user":{"name":"bilal","profile_image":"https:\/\/lh3.googleusercontent.com\/a\/ACg8ocJsfL7op27p7wxNMOd4NUfehR77pV1XtIIZVicdAeBr8gDXbg=s384-c","slug":"bilal-3"}},{"feedback":"great test site for practice.","created_at":"2025-11-05T15:16:55.000000Z","user":{"name":"Taufiqur","profile_image":"https:\/\/lh3.googleusercontent.com\/a\/ACg8ocIbk1fx0sHWQ1CXZznrf0Nv_G56IrBnnXTkbzK9wJH_f5DTc41LDA=s384-c","slug":"taufiqur"}},{"feedback":"SS","created_at":"2025-11-02T18:57:08.000000Z","user":{"name":"Samuel Arian","profile_image":"https:\/\/lh3.googleusercontent.com\/a\/ACg8ocKKbaDVE2JujgDl16GBB4daPLBqCRqAumZJYeB4udtDUWdvHw=s384-c","slug":"samuel-arian"}},{"feedback":"aaa","created_at":"2025-11-01T09:15:50.000000Z","user":{"name":"Eyall","profile_image":"https:\/\/lh3.googleusercontent.com\/a\/ACg8ocJuuBwYSPT79aMHD4-o19hhyqTSng7b5wrMHVpIm9h6b80QpXU=s384-c","slug":"eyall"}},{"feedback":"200","created_at":"2025-10-21T12:24:43.000000Z","user":{"name":"NAIEMUL HASAN","profile_image":"https:\/\/lh3.googleusercontent.com\/a\/ACg8ocLcy7KRTZrFnq2G5blupe4DA0uTE3v653Vgr62zuReUqXZBhbs=s96-c","slug":"naiemul-hasan"}},{"feedback":"Test123","created_at":"2025-10-15T13:27:35.000000Z","user":{"name":"ShumpsTech","profile_image":"https:\/\/lh3.googleusercontent.com\/a\/ACg8ocKTsORMs7Fx_8R3cuTSBCoM1EKnKDqGapamNC5sDIXIRUloftf5=s384-c","slug":"shumpstech"}},{"feedback":"Testing","created_at":"2025-10-15T13:27:18.000000Z","user":{"name":"ShumpsTech","profile_image":"https:\/\/lh3.googleusercontent.com\/a\/ACg8ocKTsORMs7Fx_8R3cuTSBCoM1EKnKDqGapamNC5sDIXIRUloftf5=s384-c","slug":"shumpstech"}},{"feedback":"gf","created_at":"2025-10-06T18:10:43.000000Z","user":{"name":"Md Jahurul Islam Reday","profile_image":"https:\/\/qabrain-prod.s3.ap-south-1.amazonaws.com\/user\/profile\/305-685eb77fe5372.png","slug":"md-jahurul-islam-reday"}},{"feedback":"1.enter valid user name password . expected result -login sucesssful .actual result - pass","created_at":"2025-09-21T16:04:26.000000Z","user":{"name":"Ashish","profile_image":"https:\/\/lh3.googleusercontent.com\/a\/ACg8ocIsGXM-xtwZzUbuMW1CqrXxFKv4DHV7IYewfta6sGanzt7YNg=s384-c","slug":"ashish-4"}}]}